#set of machines
set machines := 1 2 3;

#set of jobs
set jobs := 1 2 3 4 5 6;

#set of ranks
set ranks := 1 2 3 4 5 6;

#duration of job j on machine m
param duration :=
1 1 3
1 2 6
1 3 3
1 4 5
1 5 5
1 6 7
2 1 5
2 2 4
2 3 2
2 4 4
2 5 4
2 6 5
3 1 5
3 2 2
3 3 4
3 4 6
3 5 3
3 6 6
;
