#set of paint batches
set paint_batches := 1 2 3 4 5;

#duration of blending paint batches
param duration :=
1 40
2 35
3 45
4 32
5 50
;

#cleaning time between batch i and batch j
param clean_time :=
1 2 11
1 3 7
1 4 13
1 5 11
2 1 5
2 3 13
2 4 15
2 5 15
3 1 13
3 2 15
3 4 23
3 5 11
4 1 9
4 2 13
4 3 5
4 5 3
5 1 3
5 2 7
5 3 7
5 4 7
;
